…
timings %>%
  ggplot2::ggplot(ggplot2::aes(.data$elapsed, color = .data$ref)) +
  ggplot2::scale_x_continuous(trans = "log10") +
  ggplot2::geom_density()
```

<img src="man/figures/README-example-1.png" width="100%" />

``` r

# retrieve later
benchmark_read("name_of_benchmark", "main")
#> # A tibble: 40 x 4
#>      elapsed iteration ref   name             
#>        <dbl>     <int> <chr> <chr>            
#>  1 0.0000834         1 main  name_of_benchmark
#>  2 0.0000599         2 main  name_of_benchmark
#>  3 0.000159          3 main  name_of_benchmark
#>  4 0.000323          4 main  name_of_benchmark
#>  5 0.000134          5 main  name_of_benchmark
#>  6 0.0000671         6 main  name_of_benchmark
#>  7 0.0000827         7 main  name_of_benchmark
#>  8 0.000125          8 main  name_of_benchmark
#>  9 0.0000664         9 main  name_of_benchmark
#> 10 0.0000803        10 main  name_of_benchmark
#> # … with 30 more rows
```
…
