Inference • touchstone
…
We run the PR branch n times before we run the
target branch, the PR branch is at disadvantage.

If we always switch branches, the first branch is at
disadvantage.

The opposite effect occurs when compute power steadily decreases. So
we sample randomly within blocks:

touchstone:::branches_upsample(c("main", "feature"))
#> # A tibble: 40 × 2
#>    block branch 
#>    <int> <chr>  
#>  1     1 main   
#>  2     1 feature
#>  3     2 feature
#>  4     2 main   
#>  5     3 main   
#>  6     3 feature
#>  7     4 main   
#>  8     4 feature
#>  9     5 main   
#> 10     5 feature
#> # ℹ 30 more rows
…
